libertysmith.github.io – assignment2
…
TEDS_2016 <- read_stata("https://github.com/datageneration/home/blob/master/DataProgramming/data/TEDS_2016.dta?raw=true")

Variables Explored:

Votesai, female, DPP, age, income, edu, Taiwanese, and Econ_worse.

When encountering missing values, I put my social sciences hat on and determine that missing values should not simply be removed. In any professional setting in pursuit of social data, the external and internal validation of the potential models can be at risk if missing values are not properly computed. The reason for the data being missing should be determined and responded to. The response should attempt to resolve the potential bias in the data by retrieving the missing value(s) and the reason for its missingness, should the budget allow. Should the project be hindered by budget or logistical constraints, it is best to move forward with replacing missing values with the vector’s average(s).

NA2mean <- function(x) replace(x, is.na(x), mean(x, na.rm = TRUE)) #Saving the funciton to Environment

replace(TEDS_2016, TRUE, lapply(TEDS_2016, NA2mean))

# A tibble: 1,690 × 54
   District     Sex     Age     Edu     Arear   Career  Career8 Ethnic  Party   
   <dbl+lbl>    <dbl+l> <dbl+l> <dbl+l> <dbl+l> <dbl+l> <dbl+l> <dbl+l> <dbl+lb>
 1 201 [Yi Lan… 2 [Fem… 4 [50-… 4 [Col… 1 [Tai… 1 [Hig… 1 [Civ… 1 [Tai… 25 [Neu…
 2 201 [Yi Lan… 2 [Fem… 2 [30-… 5 [Abo… 1 [Tai… 2 [Low… 3 [CLE… 2 [Bot… 25 [Neu…
 3 201 [Yi Lan… 1 [Mal… 5 [Abo… 5 [Abo… 1 [Tai… 1 [Hig… 1 [Civ… 2 [Bot…  3 [Lea…
 4 201 [Yi Lan… 1 [Mal… 4 [50-… 2 [Jun… 1 [Tai… 4 [WOR… 4 [Lab… 1 [Tai… 25 [Neu…
 5 201 [Yi Lan… 2 [Fem… 5 [Abo… 1 [Bel… 1 [Tai… 3 [FAR… 5 [FAR… 9 [Nor… 25 [Neu…
 6 201 [Yi Lan… 2 [Fem… 5 [Abo… 2 [Jun… 1 [Tai… 2 [Low… 7 [Hou… 1 [Tai…  6 [Som…
 7 201 [Yi Lan… 1 [Mal… 5 [Abo… 1 [Bel… 1 [Tai… 4 [WOR… 4 [Lab… 2 [Bot… 25 [Neu…
 8 201 [Yi Lan… 2 [Fem… 4 [50-… 5 [Abo… 1 [Tai… 1 [Hig… 2 [Man… 1 [Tai… 24 [Som…
 9 201 [Yi Lan… 2 [Fem… 5 [Abo… 1 [Bel… 1 [Tai… 4 [WOR… 4 [Lab… 1 [Tai… 25 [Neu…
10 201 [Yi Lan… 1 [Mal… 4 [50-… 1 [Bel… 1 [Tai… 3 [FAR… 5 [FAR… 2 [Bot… 25 [Neu…
# … with 1,680 more rows, and 45 more variables: PartyID <dbl+lbl>,
#   Tondu <dbl+lbl>, Tondu3 <dbl+lbl>, nI2 <dbl+lbl>, votetsai <dbl>,
#   green <dbl>, votetsai_nm <dbl>, votetsai_all <dbl>, Independence <dbl>,
#   Unification <dbl>, sq <dbl>, Taiwanese <dbl>, edu <dbl>, female <dbl>,
#   whitecollar <dbl>, lowincome <dbl>, income <dbl>, income_nm <dbl>,
#   age <dbl>, KMT <dbl>, DPP <dbl>, npp <dbl>, noparty <dbl>, pfp <dbl>,
#   South <dbl>, north <dbl>, Minnan_father <dbl>, Mainland_father <dbl>, …
…
